book := {}
firstIndex := xs:double("1")
search-result-count := 25
lastSearchedIndex := 0
search-next-page-available := false()
form := {"method": "POST", "post": "service=direct%2F1%2FPOOLM20PBSZPROD%40_44002500_2BD9D480%2F%24Form.form&sp=S0&Form0=focus%2CkeyCode%2Cstz%2Csource%2Cselected%2CrequestCount%2CscriptEnabled%2CscrollPos%2CscrDim%2CwinDim%2CimgDim%2C%24Textfield%2C%24FormConditional%2CtextButton%2C%24FormConditional%240%2CtextButton%240%2C%24FormConditional%241%2C%24FormConditional%242%2CtextButton%241%2C%24FormConditional%243%2CtextButton%242%2C%24FormConditional%244%2CtextButton%243%2CtextButton%244%2CtextButton%245%2CtextButton%246%2CtextButton%247%2CtextButton%248%2CtextButton%249%2C%24FormConditional%245%2CtextButton%2410%2C%24Toolbar%2CcellCheck%2CcellCheck%240%2CcellCheck%241%2CcellCheck%242%2CcellCheck%243%2CcellCheck%244%2CcellCheck%245%2CcellCheck%246%2CcellCheck%247%2CcellCheck%248%2CcellCheck%249%2CcellCheck%2410%2CcellCheck%2411%2CcellCheck%2412%2CcellCheck%2413%2CcellCheck%2414%2CcellCheck%2415%2CcellCheck%2416%2CcellCheck%2417%2CcellCheck%2418%2CcellCheck%2419%2CcellCheck%2420%2CcellCheck%2421%2CcellCheck%2422%2CcellCheck%2423%2C%24Toolbar%240&focus=&keyCode=0&stz=&source=&selected=&requestCount=4&scriptEnabled=F&scrollPos=0&scrDim=&winDim=&imgDim=&%24FormConditional=T&%24FormConditional%240=T&%24FormConditional%241=F&%24FormConditional%242=T&%24FormConditional%243=T&%24FormConditional%244=F&%24FormConditional%245=T&%24Textfield=", "url": "file:///aDISWeb/app;jsessionid=051F6E6F1EF2E0B6BD660108863E71A4"}
lastIndex := 1
book := {"year": "1993", "statusId": "available", "title": "Orchester-Probespiel - Fagott - Kontrafagott : Werkausschnitte (Klangbeispiele wichtiger Stellen) aus der Opern- und Konzertliteratur. - Deutsche Grammophon Gesellschaft mbH", "author": "", "publisher": " Deutsche Grammophon Gesellschaft mbH", "_searchId": "ZTEXT%20%20%20%20%20%20%20AK00752686", "_index": 1}
lastSearchedIndex := 1
lastIndex := 2
book := {"year": "1993", "statusId": "available", "title": "Orchester-Probespiel - Posaune : Sammlung wichtiger Passagen aus der Opern- und Konzertliteratur ", "author": " ... hrsg. von Armin Rosin u. Eberhard Pleyer. ", "publisher": " Peters", "_searchId": "ZTEXT%20%20%20%20%20%20%20AK01147643", "_index": 2}
lastSearchedIndex := 2
lastIndex := 3
book := {"year": "1992", "statusId": "available", "title": "Musik. - 9, Lehrerhandbuch. Lehrerhandbuch mit Übungstest und Informellem Test ", "author": " von Lisl Hammaleser ... ", "publisher": " Wolf", "_searchId": "ZTEXT%20%20%20%20%20%20%20AK01166352", "_index": 3}
lastSearchedIndex := 3
lastIndex := 4
book := {"year": "1992", "statusId": "available", "title": "Orchester-Probespiel - Fagott (Kontrafagott) : Sammlung wichtiger Passagen aus der Opern- und Konzertliteratur ", "author": " ... hrsg. von Karl Kolbinger u. Alfred Rinderspacher. ", "publisher": " Peters", "_searchId": "ZTEXT%20%20%20%20%20%20%20AK01134000", "_index": 4}
lastSearchedIndex := 4
lastIndex := 5
book := {"year": "1992", "statusId": "available", "title": "Orchester-Probespiel - Horn : Sammlung wichtiger Passagen aus der Opern- und Konzertliteratur ", "author": " in Zs.", "publisher": " Peters", "_searchId": "ZTEXT%20%20%20%20%20%20%20AK01163511", "_index": 5}
lastSearchedIndex := 5
lastIndex := 6
book := {"year": "1991", "statusId": "available", "title": "Orchester-Probespiel - Flöte (Piccoloflöte) : Sammlung wichtiger Passagen aus der Opern- und Konzertliteratur ", "author": " ... hrsg. von Christoph Dürichen u. Siegfried Kratsch. ", "publisher": " Peters", "_searchId": "ZTEXT%20%20%20%20%20%20%20AK01149653", "_index": 6}
lastSearchedIndex := 6
lastIndex := 7
book := {"year": "1991", "statusId": "available", "title": "Orchester-Probespiel - Klarinette : Sammlung wichtiger Passagen aus der Opern- und Konzertliteratur ", "author": " ... hrsg. von Heinz Hepp u. Albert Rohde. ", "publisher": " Peters", "_searchId": "ZTEXT%20%20%20%20%20%20%20AK00708618", "_index": 7}
lastSearchedIndex := 7
lastIndex := 8
book := {"year": "1991", "statusId": "available", "title": "Orchester-Probespiel - Trompete : Sammlung wichtiger Passagen aus der Opern- und Konzertliteratur ", "author": " in Zs.", "publisher": " Peters", "_searchId": "ZTEXT%20%20%20%20%20%20%20AK00726498", "_index": 8}
lastSearchedIndex := 8
lastIndex := 9
book := {"year": "1991", "statusId": "available", "title": "Orchester-Probespiel Oboe : Sammlung wichtiger Passagen aus der Opern- und Konzertliteratur, excerpts from the operatic and concert repertoire ", "author": " ... hrsg. von Voijslav Miller u. Winfried Liebermann. ", "publisher": " Peters", "_searchId": "ZTEXT%20%20%20%20%20%20%20AK00758252", "_index": 9}
lastSearchedIndex := 9
lastIndex := 10
book := {"year": "1976", "statusId": "available", "title": "Zum Problem der Messung musikalischer Begabung : Erfahrungen mit d. Bentley-Test ", "author": " Klaus Finkel. ", "publisher": "Edition", "_searchId": "ZTEXT%20%20%20%20%20%20%20AK00121215", "_index": 10}
lastSearchedIndex := 10
lastIndex := 11
book := {"year": "1965", "statusId": "available", "title": "Musical aptitude profile. - [2]. Test \"R\" Rhythm Imagery, Tonband.  - 1965 ", "author": " Edwin Gordon. ", "publisher": " Houghton Mifflin Company", "_searchId": "ZTEXT%20%20%20%20%20%20%20AK01165654", "_index": 11}
lastSearchedIndex := 11
lastIndex := 12
book := {"year": "1965", "statusId": "available", "title": "Musical aptitude profile. - [3]. Test \"S\" Musical Sensitivity, Tonband.  - 1965 ", "author": " Edwin Gordon. ", "publisher": " Houghton Mifflin Company", "_searchId": "ZTEXT%20%20%20%20%20%20%20AK01165663", "_index": 12}
lastSearchedIndex := 12
lastIndex := 13
book := {"year": "1965", "statusId": "available", "title": "Musical aptitude profile. - [4]. Test \"T\" Tonal Imagery, Tonband.  - 1965 ", "author": " Edwin Gordon. ", "publisher": " Houghton Mifflin Company", "_searchId": "ZTEXT%20%20%20%20%20%20%20AK01165670", "_index": 13}
lastSearchedIndex := 13
lastIndex := 14
book := {"year": "", "statusId": "available", "title": "BSZ-Kurzleihe-Test", "author": "", "publisher": "Test", "_searchId": "ZTEXT%20%20%20%20%20%20%20AK20003790", "_index": 14}
lastSearchedIndex := 14
lastIndex := 15
book := {"year": "", "statusId": "available", "title": "BSZ-Kurzleihe-Test 2", "author": "", "publisher": "Test 2", "_searchId": "ZTEXT%20%20%20%20%20%20%20AK20003791", "_index": 15}
lastSearchedIndex := 15
lastIndex := 16
book := {"year": "", "statusId": "virtual", "title": "Matrizen-Test-Manual : ein Handbuch mit deutschen Normen ", "author": " von K. A. Heller, H. Kratzmeier und A. Lengfelder. ", "publisher": "Test GmbH", "_searchId": "ZTEXT%20%20%20%20%20%20%20AK01136056", "_index": 16}
lastSearchedIndex := 16
lastIndex := 17
book := {"year": "", "statusId": "virtual", "title": "Orchester-Probespiel - Harfe : Sammlung wichtiger Passagen aus der Opern- und Konzertliteratur ", "author": " in Zsarb. mit d. Dt. Orchestervereinigung e.V. (DOV) hrsg. von Ruth Konhäuser u. Helga Storck. ", "publisher": " Schott", "_searchId": "ZTEXT%20%20%20%20%20%20%20AK00757776", "_index": 17}
lastSearchedIndex := 17
lastIndex := 18
book := {"year": "", "statusId": "virtual", "title": "Orchester-Probespiel - Kontrabass : Sammlung wichtiger Passagen aus der Opern- und Konzertliteratur ", "author": " ... hrsg. von Fritz Massmann u. Gerd Reinke. ", "publisher": " Schott", "_searchId": "ZTEXT%20%20%20%20%20%20%20AK00793337", "_index": 18}
lastSearchedIndex := 18
lastIndex := 19
book := {"year": "", "statusId": "virtual", "title": "Orchester-Probespiel - Pauke, Schlagzeug : Sammlung wichtiger Passagen aus der Opern- und Konzertliteratur ", "author": " ... hrsg. von Hermann Gschwendtner u. Hans Jochen Ulrich. ", "publisher": " Schott", "_searchId": "ZTEXT%20%20%20%20%20%20%20AK00793329", "_index": 19}
lastSearchedIndex := 19
lastIndex := 20
book := {"year": "", "statusId": "virtual", "title": "Orchester-Probespiel - Viola : Sammlung wichtiger Passagen aus der Opern- und Konzertliteratur ", "author": " in Zs.", "publisher": " Schott", "_searchId": "ZTEXT%20%20%20%20%20%20%20AK00741488", "_index": 20}
lastSearchedIndex := 20
lastIndex := 21
book := {"year": "", "statusId": "virtual", "title": "Orchester-Probespiel - Violine : Sammlung wichtiger Passagen aus der Opern- und Konzertliteratur. - Schott", "author": "", "publisher": " Schott", "_searchId": "ZTEXT%20%20%20%20%20%20%20AK00757792", "_index": 21}
lastSearchedIndex := 21
lastIndex := 22
book := {"year": "", "statusId": "virtual", "title": "Orchester-Probespiel - Violoncello : Sammlung wichtiger Passagen aus der Opern- und Konzertliteratur ", "author": " in Zs.", "publisher": " Schott", "_searchId": "ZTEXT%20%20%20%20%20%20%20AK00666615", "_index": 22}
lastSearchedIndex := 22
lastIndex := 23
book := {"year": "", "statusId": "virtual", "title": "Seashore-Test für musikalische Begabung ", "author": " hrsg. von Charles Butsch .... ", "publisher": " Huber", "_searchId": "ZTEXT%20%20%20%20%20%20%20AK00186431", "_index": 23}
lastSearchedIndex := 23
lastIndex := 24
book := {"year": "", "statusId": "available", "title": "Test BSZ", "author": "", "publisher": "", "_searchId": "ZTEXT%20%20%20%20%20%20%20AK20004726", "_index": 24}
lastSearchedIndex := 24
lastIndex := 25
book := {"year": "", "statusId": "available", "title": "Test BSZ ", "author": " Bálínt Bakfark", "publisher": "", "_searchId": "ZTEXT%20%20%20%20%20%20%20AK20004603", "_index": 25}
lastSearchedIndex := 25
