book := {}
currentfield := "Titel:!"
currentfield := "title"
currentfield := "Ausgabe:!"
currentfield := "Umfang:!"
currentfield := "Serie:!"
currentfield := "ISBN:!"
currentfield := "isbn"
book := {"home-url": "http://was.duesseldorf.de/WebOPAC/QueryPanelServlet?homegkz=111&Suchbegriff=idnr=10.114678.8&Kriterium=Titel&Medienart=alle&Bibliothek=Stadtb%C3%BCchereien%20D%C3%BCsseldorf", "isbn": "978-3-589-22667-2", "Serie:!": "Verstehen, üben, testen", "Umfang:!": ": Ill. : 24 cm, 334 g", "Ausgabe:!": "2. Aufl.. - 2009", "title": "*Besser in Englisch ; Gymnasium : G8-geeignet/Kl. 5. Ingrid Preedy:", "image-url": "http://vlb.de:80/GetBlob.aspx?size=S&strIsbn=9783589226672", "amazon-url": "http://www.buchhandel.de/default.aspx?strframe=titelsuche&caller=vlbPublic&func=DirectIsbnSearch&isbn=9783589226672&nSiteId=11"}
