book := {}
currentfield := "Titel:!"
currentfield := "title"
currentfield := "Ort / Verlag, Jahr:!"
currentfield := "year"
currentfield := "Sonstiges:!"
book := {"Sonstiges:!": "Ungezählte Schriftenreihe", "year": "Göttingen, Bern , Wien , Paris , Oxford , Prag , Toronto , Cambridge, Mass. , Amsterdam , Kopenhagen , Stockholm : Hogrefe", "title": "Beltz-Test"}
