book := {}
nextPage := ()
nextPage := "speedHitList.do?methodToCall=refineHitList&amp;speedHitlistUrl=speedHitList.do&amp;newMemorizeListName=&amp;databaseId=2&amp;dbIdentifier=2&amp;pos=11"
search-result-count := "453"
hasZ3988 := false()
brs := (text{""}, 
text{""})
book := {"year": "2009", "author": "Bückmann, Barbara ", "title": "Kieferorthopädie", "_detail-url": "/TouchPoint/singleHit.do?methodToCall=showHit&curPos=1&identifier=2_SOLR_SERVER_1373153954", "orderable": 0}
hasZ3988 := false()
book := {"author": "", "title": "test spezial", "_detail-url": "/TouchPoint/singleHit.do?methodToCall=showHit&curPos=2&identifier=2_SOLR_SERVER_1373153954", "orderable": 0}
brs := text{""}
hasZ3988 := false()
brs := (text{""}, 
text{""})
book := {"year": "2012", "author": "Bopp, Annette ", "title": "Medikamente im Test - Krebs", "_detail-url": "/TouchPoint/singleHit.do?methodToCall=showHit&curPos=3&identifier=2_SOLR_SERVER_1373153954", "orderable": 0}
hasZ3988 := false()
brs := (text{""}, 
text{""})
book := {"year": "2015", "author": "Nonhoff, Dirk ", "title": "Der kleine Hausarzt", "_detail-url": "/TouchPoint/singleHit.do?methodToCall=showHit&curPos=4&identifier=2_SOLR_SERVER_1373153954", "orderable": 0}
hasZ3988 := false()
brs := (text{""}, 
text{""})
book := {"year": "2014", "author": "Thomas, Ceri ", "title": "Mein Gartenjahr", "_detail-url": "/TouchPoint/singleHit.do?methodToCall=showHit&curPos=5&identifier=2_SOLR_SERVER_1373153954", "orderable": 0}
hasZ3988 := false()
brs := (text{""}, 
text{""})
book := {"year": "2012", "author": "Friedl, Angelika ", "title": "Asthma", "_detail-url": "/TouchPoint/singleHit.do?methodToCall=showHit&curPos=6&identifier=2_SOLR_SERVER_1373153954", "orderable": 0}
hasZ3988 := false()
brs := (text{""}, 
text{""})
book := {"year": "2011", "author": "Elster, Lena ", "title": "Sehr schnell kochen", "_detail-url": "/TouchPoint/singleHit.do?methodToCall=showHit&curPos=7&identifier=2_SOLR_SERVER_1373153954", "orderable": 0}
hasZ3988 := false()
brs := (text{""}, 
text{""})
book := {"year": "2010", "author": "Niklewski, Günter ", "title": "Ängste überwinden", "_detail-url": "/TouchPoint/singleHit.do?methodToCall=showHit&curPos=8&identifier=2_SOLR_SERVER_1373153954", "orderable": 0}
hasZ3988 := false()
brs := (text{""}, 
text{""})
book := {"year": "2010", "author": "Birkholz, Peter ", "title": "Reparaturen zu Hause", "_detail-url": "/TouchPoint/singleHit.do?methodToCall=showHit&curPos=9&identifier=2_SOLR_SERVER_1373153954", "orderable": 0}
hasZ3988 := false()
brs := (text{""}, 
text{""})
book := {"year": "2009", "author": "Götze, Monika ", "title": "Das Energiesparbuch", "_detail-url": "/TouchPoint/singleHit.do?methodToCall=showHit&curPos=10&identifier=2_SOLR_SERVER_1373153954", "orderable": 0}
