book := {}
search-result-count := "17"
book := {"author": "Hesse, Jürgen  ; Schrader, Hans Christian", "title": "Testtraining 2000plus : Einstellungs- und Eignungstests erfolgreich bestehen / Hesse/Schrader\n(Berufsstrategie) ", "year": " 2009", "_detailsBackScroll": "file:///home/benito/hg/programs/internet/VideLibri/_meta/sites//bibliotheca/searchList.stralsund.html?scrollAction=1", "_details": "file:///home/benito/hg/programs/internet/VideLibri/_meta/sites//bibliotheca/index.asp?detmediennr=0"}
book := {"author": "Hesse, Jürgen ; Schrader, Christian", "title": "Testtraining Banken und Versicherungen : Einstellungs- und Eignungstests erfolgreich bestehen / Jürgen Hesse ; Christian Schrader\n(Berufsstrategie) ", "year": " 2007", "_detailsBackScroll": "file:///home/benito/hg/programs/internet/VideLibri/_meta/sites//bibliotheca/searchList.stralsund.html?scrollAction=1", "_details": "file:///home/benito/hg/programs/internet/VideLibri/_meta/sites//bibliotheca/index.asp?detmediennr=1"}
book := {"author": "Hesse, Jürgen ; Schrader, Hans Christian", "title": "Testtraining Allgemeinwissen : Eignungs- und Einstellungstests sicher bestehen / Jürgen Hesse ; Hans Christian Schrader - aktualisi... ", "year": " 2002", "_detailsBackScroll": "file:///home/benito/hg/programs/internet/VideLibri/_meta/sites//bibliotheca/searchList.stralsund.html?scrollAction=1", "_details": "file:///home/benito/hg/programs/internet/VideLibri/_meta/sites//bibliotheca/index.asp?detmediennr=2"}
book := {"author": "Hesse, Jürgen ; Schrader, Hans Christian", "title": "Testtraining Konzentrationsvermögen : Eignungs- und Einstellungstets sicher bestehen\n(Eichborn exakt) ", "year": " 1999", "_detailsBackScroll": "file:///home/benito/hg/programs/internet/VideLibri/_meta/sites//bibliotheca/searchList.stralsund.html?scrollAction=1", "_details": "file:///home/benito/hg/programs/internet/VideLibri/_meta/sites//bibliotheca/index.asp?detmediennr=3"}
book := {"author": "Hesse, Jürgen ; Schrader, Hans Christian", "title": "Testtraining Kreativität : Eignungs- und Einstellungstests sicher bestehen / Jürgen Hesse ; Hans Christian Schrader\n(Berufsstrategie exakt) ", "year": " 2007", "_detailsBackScroll": "file:///home/benito/hg/programs/internet/VideLibri/_meta/sites//bibliotheca/searchList.stralsund.html?scrollAction=1", "_details": "file:///home/benito/hg/programs/internet/VideLibri/_meta/sites//bibliotheca/index.asp?detmediennr=4"}
book := {"author": "Hesse, Jürgen ; Schrader, Hans Christian", "title": "Testtraining Logik : Eignungs- und Einstellungstest sicher bestehen / Jürgen Hesse ; Hans Christian Schrader ", "year": " 1999", "_detailsBackScroll": "file:///home/benito/hg/programs/internet/VideLibri/_meta/sites//bibliotheca/searchList.stralsund.html?scrollAction=1", "_details": "file:///home/benito/hg/programs/internet/VideLibri/_meta/sites//bibliotheca/index.asp?detmediennr=5"}
book := {"author": "Hesse, Jürgen ; Schrader, Hans Christian", "title": "Testtraining Persönlichkeit : Eignungs- und Einstellungstests sicher bestehen / Jürgen Hesse ; Hans Christian Schrader - aktualisi... ", "year": " 2002", "_detailsBackScroll": "file:///home/benito/hg/programs/internet/VideLibri/_meta/sites//bibliotheca/searchList.stralsund.html?scrollAction=1", "_details": "file:///home/benito/hg/programs/internet/VideLibri/_meta/sites//bibliotheca/index.asp?detmediennr=6"}
book := {"author": "Hesse, Jürgen ; Schrader, Hans Christian", "title": "Testtraining Polizei : Schutz- und Kriminalpolizei, Bundeswehr, Bundespolizei, Verfassungsschutz und Feuerwehr ; Einstellungs- und Eignungstests erfolgreich bestehen ", "year": " 2014", "_detailsBackScroll": "file:///home/benito/hg/programs/internet/VideLibri/_meta/sites//bibliotheca/searchList.stralsund.html?scrollAction=1", "_details": "file:///home/benito/hg/programs/internet/VideLibri/_meta/sites//bibliotheca/index.asp?detmediennr=7"}
book := {"author": "Hesse, Jürgen ; Schrader, Hans Christian", "title": "Testtraining Polizei und Feuerwehr : Kriminalpolizei, Bundeswehr, Bundesgrenzschutz ; Einstellungs- und Eignungstests...\n(Berufsstrategie) ", "year": " 2005", "_detailsBackScroll": "file:///home/benito/hg/programs/internet/VideLibri/_meta/sites//bibliotheca/searchList.stralsund.html?scrollAction=1", "_details": "file:///home/benito/hg/programs/internet/VideLibri/_meta/sites//bibliotheca/index.asp?detmediennr=8"}
book := {"author": "Hesse, Jürgen ; Schrader, Hans Christian", "title": "Testtraining Rechnen und Mathematik : Eignungs- und Enstellungstests sicher bstehen\n(Eichborn exakt) ", "year": " 1999", "_detailsBackScroll": "file:///home/benito/hg/programs/internet/VideLibri/_meta/sites//bibliotheca/searchList.stralsund.html?scrollAction=1", "_details": "file:///home/benito/hg/programs/internet/VideLibri/_meta/sites//bibliotheca/index.asp?detmediennr=9"}
search-next-page-available := true()
next-page := text{"index.asp?scrollAction=2"}
