book := {}
temp := text{"Autor"}
temp := text{"Teil"}
temp := text{"Umfang"}
temp := text{"Anmerkungen"}
temp := text{"ISMN"}
temp := text{"Schlagwörter"}
i := 0
i := 1
book := {"Exemplar 1!": "4.OG Sachbuch\nErziehung\n M86 424 173 2 \n\n\nDieser Titel ist verfügbar.", "id": "Erziehung", "Schlagwörter!": "Kind\n\n\t\t\t\t\n\n\t\t\t\n\n\t\t\n\n\t\n\t\n\n\t\n\n\t\t\n\t\t\t\t\n\n\t\t\t\t\n\n\t\t\t\t\t\n\n\t\t\t\t\t\t / \n\n\t\t\t\t\t\n\n\t\t\t\t\t\n\n\t\t\t\t\t\n\t\t\t\t\t\n\t\t\t\t\t\t\n\t\t\t\t\t\t\n\t\t\t\t\t\n\n\t\t\t\t\t\n\t\t\t\t\t\n\t\t\t\t\t\n\t\t\t\t\n\t\t\t\n\t\t\t\n\t\t\n\n\t\n\n\t\n\n\t\n\t\n\t\t\n    \n\t\t\n\t\t\t\n\n\t\t\t\t\n\n\t\t\t\t\t\n\n\t\t\t\t\t\n\n\t\t\t\t\t\n\n\t\t\t\t\t\n\t\t\t\t\t\n\t\t\t\t\t\t\n\t\t\t\t\t\t\n\t\t\t\t\t\n\n\t\t\t\t\t\n\t\t\t\t\t\n\t\t\t\t\tHypersensibilität", "EAN!": "9783466310463", "ISMN!": "", "isbn": "978-3-466-31046-3\n\n\t\t\t\t\n\n\t\t\t\t\t\n\n\t\t\t\t\t\t\n\n\t\t\t\t\t\n\n\t\t\t\t\t\n\n\t\t\t\t\t\n\t\t\t\t\t\n\t\t\t\t\t\t\n\t\t\t\t\t\t\n\t\t\t\t\t\n\n\t\t\t\t\t\n\t\t\t\t\t\n\t\t\t\t\tkart. ", "Anmerkungen!": "Literaturangaben", "Umfang!": "206 S.\n\n\t\t\t\t\n\n\t\t\t\t\t\n\n\t\t\t\t\t\t ; \n\n\t\t\t\t\t\n\n\t\t\t\t\t\n\n\t\t\t\t\t\n\t\t\t\t\t\n\t\t\t\t\t\t\n\t\t\t\t\t\t\n\t\t\t\t\t\n\n\t\t\t\t\t\n\t\t\t\t\t\n\t\t\t\t\t22 cm", "publisher": " \n\n\t\t\t\t\t\n\n\t\t\t\t\t\n\n\t\t\t\t\t\n\t\t\t\t\t\n\t\t\t\t\t\t\n\t\t\t\t\t\t\n\t\t\t\t\t\n\n\t\t\t\t\t\n\t\t\t\t\t\n\t\t\t\t\tKösel\n\n\t\t\t\t\n\n\t\t\t\t\t\n\n\t\t\t\t\t\t , \n\n\t\t\t\t\t\n\n\t\t\t\t\t\n\n\t\t\t\t\t\n\t\t\t\t\t\n\t\t\t\t\t\t\n\t\t\t\t\t\t\n\t\t\t\t\t\n\n\t\t\t\t\t\n\t\t\t\t\t\n\t\t\t\t\t", "location": "München\n\n\t\t\t\t\n\n\t\t\t\t\t\n\n\t\t\t\t\t\t ", "year": "2015", "author": "Sellin, Rolf\n\n\t\t\t\t\n\n\t\t\t\t\t\n\n\t\t\t\t\t\t ; \n\n\t\t\t\t\t\n\n\t\t\t\t\t\n\n\t\t\t\t\t\n\t\t\t\t\t\n\t\t\t\t\t\t\n\t\t\t\t\t\t\n\t\t\t\t\t\n\n\t\t\t\t\t\n\t\t\t\t\t\n\t\t\t\t\taut", "Teil!": "", "title": "Mein Kind ist hochsensibel - was tun?\n\n\t\t\t\t\n\n\t\t\t\t\t\n\n\t\t\t\t\t\t\n\n\t\t\t\t\t\n\n\t\t\t\t\t\n\n\t\t\t\t\t\n\t\t\t\t\t\n\t\t\t\t\t\t\n\t\t\t\t\t\t\n\t\t\t\t\t\n\n\t\t\t\t\t\n\t\t\t\t\t\n\t\t\t\t\t : wie Sie es verstehen, stärken und fördern ; [mit Test: Ist mein Kind hochsensibel?]\n\n\t\t\t\t\n\n\t\t\t\t\t\n\n\t\t\t\t\t\t\n\n\t\t\t\t\t\n\n\t\t\t\t\t\n\n\t\t\t\t\t\n\t\t\t\t\t\n\t\t\t\t\t\t\n\t\t\t\t\t\t\n\t\t\t\t\t\n\n\t\t\t\t\t\n\t\t\t\t\t\n\t\t\t\t\t / Rolf Sellin", "Autor!": "Sellin, Rolf", "_order-url": "Obj_220181459288634?Style=Portal2&SubStyle=&Lang=GER&ResponseEncoding=utf-8&Method=MakeReservation&Parent=Obj_220181459288634&BrowseAsHloc=-2", "orderable": true}
